<?xml version="1.0" encoding="UTF-8" standalone="no"?>
<!-- Created with Inkscape (http://www.inkscape.org/) -->

<svg
   xmlns:dc="http://purl.org/dc/elements/1.1/"
   xmlns:cc="http://creativecommons.org/ns#"
   xmlns:rdf="http://www.w3.org/1999/02/22-rdf-syntax-ns#"
   xmlns:svg="http://www.w3.org/2000/svg"
   xmlns="http://www.w3.org/2000/svg"
   xmlns:sodipodi="http://sodipodi.sourceforge.net/DTD/sodipodi-0.dtd"
   xmlns:inkscape="http://www.inkscape.org/namespaces/inkscape"
   width="873.61627"
   height="705.565"
   id="svg2"
   version="1.1"
   inkscape:version="0.48.1 r9760"
   sodipodi:docname="logo-white-bg.svg">
  <defs
     id="defs4">
    <clipPath
       id="clipPath3001"
       clipPathUnits="userSpaceOnUse">
      <path
         id="path3003"
         d="M 0,5644.52 0,0 l 6988.93,0 0,5644.52 -6988.93,0 z"
         inkscape:connector-curvature="0" />
    </clipPath>
  </defs>
  <sodipodi:namedview
     id="base"
     pagecolor="#ffffff"
     bordercolor="#ffffff"
     borderopacity="1"
     inkscape:pageopacity="1"
     inkscape:pageshadow="2"
     inkscape:zoom="0.35"
     inkscape:cx="334.07777"
     inkscape:cy="350.13399"
     inkscape:document-units="px"
     inkscape:current-layer="layer1"
     showgrid="false"
     inkscape:window-width="1920"
     inkscape:window-height="1148"
     inkscape:window-x="0"
     inkscape:window-y="24"
     inkscape:window-maximized="1"
     fit-margin-top="0"
     fit-margin-left="0"
     fit-margin-right="0"
     fit-margin-bottom="0"
     showborder="false"
     inkscape:showpageshadow="false"
     units="mm"
     borderlayer="false" />
  <metadata
     id="metadata7">
    <rdf:RDF>
      <cc:Work
         rdf:about="">
        <dc:format>image/svg+xml</dc:format>
        <dc:type
           rdf:resource="http://purl.org/dc/dcmitype/StillImage" />
        <dc:title></dc:title>
      </cc:Work>
    </rdf:RDF>
  </metadata>
  <g
     inkscape:label="Layer 1"
     inkscape:groupmode="layer"
     id="layer1"
     transform="translate(500.55146,-144.85176)">
    <g
       id="g2997"
       transform="matrix(0.125,0,0,-0.125,-500.55146,850.41676)">
      <g
         clip-path="url(#clipPath3001)"
         id="g2999">
        <path
           id="path3005"
           style="fill:#25477f;fill-opacity:1;fill-rule:nonzero;stroke:none"
           d="M 1518.16,346.281 C 283.453,926.441 -273.035,2381.2 191.387,3693.26 -316.68,2322.65 214.898,812.582 1452.8,230.98 2471.55,-247.75 3668.95,43.3594 4468.28,866.941 3685.14,117.262 2522.19,-125.43 1518.16,346.281 z M 3887.83,5413.52 C 2797.5,5925.87 1502.41,5556.58 709.824,4596.19 1484.53,5508.07 2765.73,5840.95 3858.53,5327.45 4715.91,4924.58 5246.15,4099.94 5334.75,3194.26 5274.5,4144.74 4754.16,5006.52 3887.83,5413.52"
           inkscape:connector-curvature="0" />
        <path
           id="path3007"
           style="fill:#25477f;fill-opacity:1;fill-rule:nonzero;stroke:none"
           d="m 1208.22,3496.03 c -13.53,46.66 -33.65,88.44 -60.37,125.33 -26.71,36.9 -59.49,66.9 -98.31,90.06 -38.83,23.14 -83.532,34.73 -134.106,34.73 -47.739,0 -89.946,-8.87 -126.629,-26.59 -36.703,-17.73 -67.692,-41.96 -92.969,-72.71 -25.301,-30.75 -44.535,-66.55 -57.715,-107.42 -13.187,-40.88 -19.766,-84.47 -19.766,-130.75 0,-47.04 6.942,-94.04 20.84,-141.06 13.891,-47.04 34.36,-89.35 61.45,-126.96 27.058,-37.61 60.371,-68.19 99.914,-91.69 39.535,-23.51 84.578,-35.27 135.179,-35.27 47.715,0 89.762,9.23 126.102,27.68 36.32,18.44 66.78,43.22 91.35,74.32 24.58,31.1 43.28,67.45 56.11,109.06 12.82,41.59 19.24,85.18 19.24,130.76 0,47 -6.79,93.85 -20.32,140.51 z m 99.39,-291.34 c -19.23,-43.42 -45.41,-81.03 -78.54,-112.86 -33.13,-31.84 -71.78,-58.24 -115.95,-79.21 -44.17,-20.99 -91.2,-37.26 -141.054,-48.82 -4.273,-0.73 -9.449,-1.45 -15.5,-2.18 -6.054,-0.71 -12.464,-1.26 -19.226,-1.63 -6.778,-0.35 -13.731,-0.54 -20.84,-0.54 -6.41,0 -11.758,0 -16.031,0 -29.219,0 -59.492,5.43 -90.828,16.28 -31.364,10.85 -61.633,25.5 -90.832,43.95 -29.223,18.43 -56.832,40.31 -82.817,65.65 -26.019,25.3 -48.625,52.62 -67.855,81.91 -19.235,29.31 -34.575,59.86 -45.949,91.69 -11.411,31.83 -17.106,63.66 -17.106,95.5 0,63.64 6.766,120.07 20.309,169.27 13.527,49.19 35.261,91.86 65.183,128.04 29.922,36.17 68.391,66.36 115.41,90.61 47.012,24.22 104.004,43.57 170.981,58.05 9.961,2.18 20.469,3.79 31.512,4.89 11.039,1.08 21.543,1.62 31.527,1.62 66.956,0 125.386,-13.75 175.256,-41.23 49.85,-27.5 91.18,-62.94 123.96,-106.34 32.76,-43.41 57.17,-92.07 73.2,-145.95 16.03,-53.89 24.04,-107.25 24.04,-160.05 0,-55.71 -9.61,-105.26 -28.85,-148.65"
           inkscape:connector-curvature="0" />
        <path
           id="path3009"
           style="fill:#25477f;fill-opacity:1;fill-rule:nonzero;stroke:none"
           d="m 1787.41,3626.79 c 0,-1.46 -0.19,-3.8 -0.54,-7.06 -0.37,-3.25 -0.71,-6.69 -1.06,-10.31 -0.38,-3.63 -0.55,-6.51 -0.55,-8.68 0,-7.24 -0.53,-15.18 -1.59,-23.87 -1.07,-8.68 -2.51,-16.82 -4.28,-24.41 -1.78,-7.6 -4.28,-14.48 -7.48,-20.63 -3.2,-6.15 -6.95,-10.67 -11.22,-13.56 -4.27,-2.16 -8.54,-2.35 -12.82,-0.53 -4.28,1.79 -6.41,4.88 -6.41,9.22 -0.72,23.14 -8.2,38.52 -22.45,46.11 -14.25,7.6 -31.35,11.4 -51.29,11.4 -9.99,0 -20.3,-0.55 -30.99,-1.63 -10.68,-1.08 -21.37,-2.36 -32.06,-3.79 -9.98,-1.46 -17.46,-2.56 -22.43,-3.27 -4.99,-0.73 -12.13,-1.08 -21.38,-1.08 l 0,-198.57 150.67,0 c 3.56,0 8.9,2.34 16.03,7.05 7.12,4.69 12.46,8.85 16.03,12.48 4.28,2.88 8.91,3.43 13.9,1.63 4.98,-1.82 7.47,-4.89 7.47,-9.23 l 0,-13.02 c 0,-7.97 -0.18,-17.19 -0.53,-27.66 -0.36,-10.51 -1.26,-20.99 -2.67,-31.47 -1.44,-10.5 -3.74,-20.27 -6.95,-29.31 -3.2,-9.04 -7.66,-15.37 -13.35,-18.98 -4.27,-2.9 -8.55,-3.44 -12.83,-1.63 -4.27,1.8 -6.41,4.88 -6.41,9.22 0.7,22.42 -5.88,37.44 -19.76,45.03 -13.91,7.6 -30.83,11.4 -50.77,11.4 -5.71,0 -11.41,-0.19 -17.1,-0.55 -5.71,-0.37 -11.75,-0.91 -18.16,-1.62 -5.71,-0.73 -11.41,-1.27 -17.1,-1.63 -5.71,-0.37 -11.76,-0.54 -18.17,-0.54 -3.57,0 -7.13,0 -10.68,0 -2.86,0 -6.06,0.35 -9.62,1.08 l 0,-200.74 c 0,-27.5 4.44,-46.31 13.36,-56.42 8.9,-10.14 26.88,-14.48 53.96,-13.03 7.11,0 11.04,-3.08 11.75,-9.22 0.71,-6.15 -2.49,-9.59 -9.61,-10.3 -17.81,-1.46 -35.63,-2.18 -53.44,-2.18 -17.8,0 -35.62,0 -53.42,0 -18.53,0 -36.87,0.18 -55.04,0.54 -18.16,0.36 -36.51,0.91 -55.03,1.64 -6.41,0 -9.98,2.88 -10.68,8.67 -0.73,5.78 2.13,9.4 8.54,10.85 11.4,1.45 20.47,3.26 27.26,5.43 6.75,2.17 11.91,5.43 15.49,9.77 3.56,4.33 5.87,10.48 6.95,18.44 1.06,7.95 1.6,18.8 1.6,32.55 l 0,441.64 c 0,13.73 -3.39,22.79 -10.15,27.12 -6.78,4.34 -14.08,7.23 -21.92,8.69 -5.7,1.44 -11.21,3.07 -16.55,4.88 -5.35,1.8 -10.87,4.16 -16.57,7.06 -5.7,1.43 -8.01,4.69 -6.94,9.76 1.06,5.05 4.8,7.6 11.22,7.6 34.2,-1.46 67.67,-2.18 100.44,-2.18 33.49,0 67.33,0 101.52,0 l 120.76,0 c 7.83,0 15.66,0.55 23.51,1.63 7.83,1.09 15.3,3.43 22.44,7.05 l 17.1,-9.76 c 0,1.44 0,1.08 0,-1.08"
           inkscape:connector-curvature="0" />
        <path
           id="path3011"
           style="fill:#25477f;fill-opacity:1;fill-rule:nonzero;stroke:none"
           d="m 2233,3626.79 c 0,-1.46 -0.18,-3.8 -0.54,-7.06 -0.37,-3.25 -0.72,-6.69 -1.06,-10.31 -0.37,-3.63 -0.55,-6.51 -0.55,-8.68 0,-7.24 -0.52,-15.18 -1.59,-23.87 -1.07,-8.68 -2.51,-16.82 -4.27,-24.41 -1.79,-7.6 -4.29,-14.48 -7.49,-20.63 -3.2,-6.15 -6.95,-10.67 -11.22,-13.56 -4.27,-2.16 -8.55,-2.35 -12.82,-0.53 -4.28,1.79 -6.41,4.88 -6.41,9.22 -0.72,23.14 -8.2,38.52 -22.44,46.11 -14.26,7.6 -31.36,11.4 -51.29,11.4 -9.99,0 -20.31,-0.55 -31,-1.63 -10.68,-1.08 -21.37,-2.36 -32.05,-3.79 -9.99,-1.46 -17.47,-2.56 -22.44,-3.27 -4.99,-0.73 -12.13,-1.08 -21.37,-1.08 l 0,-198.57 150.66,0 c 3.56,0 8.91,2.34 16.04,7.05 7.11,4.69 12.45,8.85 16.02,12.48 4.28,2.88 8.91,3.43 13.9,1.63 4.97,-1.82 7.47,-4.89 7.47,-9.23 l 0,-13.02 c 0,-7.97 -0.17,-17.19 -0.53,-27.66 -0.36,-10.51 -1.25,-20.99 -2.67,-31.47 -1.44,-10.5 -3.74,-20.27 -6.95,-29.31 -3.2,-9.04 -7.66,-15.37 -13.35,-18.98 -4.27,-2.9 -8.55,-3.44 -12.83,-1.63 -4.27,1.8 -6.4,4.88 -6.4,9.22 0.69,22.42 -5.89,37.44 -19.78,45.03 -13.89,7.6 -30.82,11.4 -50.76,11.4 -5.7,0 -11.4,-0.19 -17.09,-0.55 -5.72,-0.37 -11.76,-0.91 -18.17,-1.62 -5.71,-0.73 -11.41,-1.27 -17.1,-1.63 -5.71,-0.37 -11.75,-0.54 -18.16,-0.54 -3.58,0 -7.13,0 -10.69,0 -2.85,0 -6.07,0.35 -9.61,1.08 l 0,-200.74 c 0,-27.5 4.43,-46.31 13.35,-56.42 8.9,-10.14 26.88,-14.48 53.96,-13.03 7.12,0 11.04,-3.08 11.76,-9.22 0.71,-6.15 -2.5,-9.59 -9.63,-10.3 -17.8,-1.46 -35.62,-2.18 -53.42,-2.18 -17.81,0 -35.63,0 -53.43,0 -18.54,0 -36.87,0.18 -55.03,0.54 -18.18,0.36 -36.52,0.91 -55.04,1.64 -6.41,0 -9.98,2.88 -10.68,8.67 -0.72,5.78 2.13,9.4 8.55,10.85 11.39,1.45 20.46,3.26 27.24,5.43 6.76,2.17 11.93,5.43 15.5,9.77 3.56,4.33 5.88,10.48 6.95,18.44 1.06,7.95 1.6,18.8 1.6,32.55 l 0,441.64 c 0,13.73 -3.39,22.79 -10.15,27.12 -6.78,4.34 -14.08,7.23 -21.91,8.69 -5.7,1.44 -11.22,3.07 -16.56,4.88 -5.35,1.8 -10.87,4.16 -16.56,7.06 -5.71,1.43 -8.02,4.69 -6.96,9.76 1.08,5.05 4.82,7.6 11.23,7.6 34.2,-1.46 67.67,-2.18 100.45,-2.18 33.48,0 67.32,0 101.51,0 l 120.76,0 c 7.83,0 15.66,0.55 23.51,1.63 7.83,1.09 15.31,3.43 22.43,7.05 l 17.11,-9.76 c 0,1.44 0,1.08 0,-1.08"
           inkscape:connector-curvature="0" />
        <path
           id="path3013"
           style="fill:#25477f;fill-opacity:1;fill-rule:nonzero;stroke:none"
           d="m 2505.48,3033.24 c -12.82,0.71 -25.48,0.71 -37.94,0 -12.46,-0.73 -25.47,-0.73 -39,0 l -40.61,1.08 c -5.71,0 -12.82,-0.37 -21.37,-1.08 -8.55,-0.73 -17.63,-1.46 -27.25,-2.17 -9.62,-0.73 -18.88,-0.92 -27.78,-0.54 -8.92,0.35 -15.86,1.62 -20.84,3.79 -6.41,2.17 -8.19,6.68 -5.34,13.57 2.83,6.86 7.48,9.57 13.89,8.14 3.56,-1.46 6.58,-1.63 9.08,-0.55 2.49,1.09 4.44,1.63 5.88,1.63 5.69,0 10.5,2.34 14.43,7.05 3.91,4.7 6.95,10.66 9.08,17.9 2.13,7.23 3.74,14.47 4.8,21.71 1.08,7.22 1.62,13.73 1.62,19.53 l 0,441.64 c 0,14.46 -5.89,24.76 -17.64,30.91 -11.75,6.15 -24.04,9.94 -36.87,11.4 -7.12,0.71 -10.51,3.8 -10.15,9.23 0.35,5.42 4.09,8.49 11.22,9.22 17.1,1.44 34.19,1.44 51.3,0 17.09,-1.45 33.82,-2.17 50.22,-2.17 16.38,0 32.4,0.72 48.09,2.17 15.66,1.44 31.69,1.44 48.09,0 6.4,-0.73 9.77,-3.63 10.15,-8.68 0.35,-5.07 -2.68,-8.33 -9.09,-9.77 -14.25,-2.17 -26.36,-5.42 -36.33,-9.77 -9.99,-4.34 -14.97,-15.18 -14.97,-32.54 l 0,-438.38 c 0,-2.9 0.55,-7.24 1.61,-13.02 1.07,-5.8 2.31,-11.94 3.75,-18.45 1.41,-6.51 3.2,-12.67 5.34,-18.45 2.13,-5.8 3.9,-9.77 5.34,-11.94 2.14,-0.73 5.34,-1.46 9.61,-2.16 4.28,-0.73 8.19,-1.09 11.76,-1.09 7.83,0 14.78,-0.54 20.84,-1.63 6.05,-1.08 11.92,-4.17 17.63,-9.22 l -8.55,-17.36"
           inkscape:connector-curvature="0" />
        <path
           id="path3015"
           style="fill:#25477f;fill-opacity:1;fill-rule:nonzero;stroke:none"
           d="m 3165.35,3128.72 c -5.35,-18.82 -11.22,-35.45 -17.64,-49.91 -1.44,-2.9 -3.56,-5.07 -6.41,-6.51 -37.05,-11.58 -77.84,-21.89 -122.35,-30.92 -44.54,-9.06 -86.74,-13.56 -126.64,-13.56 -42.04,0 -82.28,7.04 -120.75,21.15 -38.47,14.1 -72.49,34.18 -102.05,60.23 -29.57,26.04 -53.26,57.13 -71.06,93.31 -17.81,36.17 -26.72,76.32 -26.72,120.44 0,47.02 10.86,92.96 32.6,137.81 21.72,44.85 49.69,82.83 83.88,113.94 14.25,13.02 32.07,23.87 53.43,32.55 21.37,8.68 43.82,15.55 67.33,20.62 23.51,5.05 46.83,8.68 69.99,10.84 23.14,2.18 43.63,3.27 61.45,3.27 22.07,0 43.63,-1.09 64.65,-3.27 21,-2.16 41.84,-4.7 62.51,-7.58 16.38,-2.18 32.06,-4.17 47.01,-5.98 14.97,-1.81 30.28,-3.44 45.96,-4.88 7.83,0 11.75,-2.9 11.75,-8.67 -0.72,-25.34 -2.85,-50.29 -6.41,-74.88 -3.57,-24.6 -7.48,-48.82 -11.75,-72.7 -1.44,-5.07 -5.72,-7.6 -12.83,-7.6 -6.41,0 -10.33,2.53 -11.75,7.6 -4.27,24.58 -12.82,45.58 -25.65,62.94 -12.82,17.35 -27.96,31.63 -45.41,42.86 -17.47,11.21 -36.88,19.34 -58.24,24.42 -21.37,5.05 -43.11,7.59 -65.18,7.59 -36.34,0 -70.54,-5.07 -102.59,-15.2 -32.06,-10.14 -60.21,-25.32 -84.43,-45.57 -24.22,-20.26 -43.46,-45.4 -57.7,-75.41 -14.26,-30.03 -21.37,-64.93 -21.37,-104.71 0,-41.24 7.83,-79.4 23.51,-114.49 15.66,-35.09 36.87,-65.47 63.58,-91.14 26.71,-25.69 57.71,-45.95 92.97,-60.77 35.26,-14.83 72.47,-22.24 111.67,-22.24 39.89,0 76.41,9.4 109.53,28.22 33.13,18.8 59.66,47.01 79.61,84.62 l 24.58,-4.33 c -0.72,-15.92 -3.74,-33.28 -9.08,-52.09"
           inkscape:connector-curvature="0" />
        <path
           id="path3017"
           style="fill:#25477f;fill-opacity:1;fill-rule:nonzero;stroke:none"
           d="m 3606.15,3043.01 -8.55,-4.34 c -4.27,-1.46 -12.48,-2.18 -24.57,-2.18 -12.13,0 -25.13,0.18 -39.02,0.54 -13.9,0.36 -27.09,0.72 -39.53,1.08 -12.48,0.36 -21.2,0.56 -26.18,0.56 -11.41,0 -22.8,-0.2 -34.2,-0.56 -11.39,-0.36 -22.81,-0.53 -34.19,-0.53 -25.65,0 -51.3,-0.19 -76.95,-0.55 -25.64,-0.36 -50.94,0.18 -75.87,1.64 -6.41,0.71 -9.44,4.15 -9.08,10.3 0.35,6.14 3.74,9.22 10.15,9.22 19.94,0.71 33.13,7.06 39.54,19 6.41,11.93 9.62,27.66 9.62,47.19 l 0,444.89 c 0,12.3 -3.38,20.43 -10.15,24.42 -6.78,3.97 -14.08,6.68 -21.92,8.14 -5.7,1.44 -11.58,2.88 -17.62,4.34 -6.07,1.45 -11.94,3.97 -17.63,7.6 -5.71,2.87 -7.49,6.5 -5.35,10.85 2.14,4.33 6.41,6.51 12.83,6.51 6.41,0 14.78,-0.19 25.11,-0.55 10.32,-0.37 21.91,-0.54 34.73,-0.54 20.65,-0.73 43.1,-1.27 67.32,-1.62 24.21,-0.38 48.8,-0.55 73.73,-0.55 35.62,0 68.04,0.71 97.25,2.17 29.19,1.44 48.78,3.97 58.77,7.59 4.99,1.45 9.25,1.08 12.83,-1.08 3.55,-2.17 4.98,-5.07 4.26,-8.68 -1.42,-13.75 -3.56,-26.42 -6.4,-37.98 -2.84,-11.58 -5.7,-23.16 -8.57,-34.72 -1.41,-5.07 -2.48,-9.77 -3.18,-14.11 -0.73,-4.34 -1.8,-8.67 -3.2,-13.01 -1.46,-5.08 -5.73,-7.6 -12.84,-7.6 -7.12,0 -11.04,2.88 -11.74,8.67 -0.74,12.29 -3.59,22.06 -8.56,29.3 -4.99,7.23 -11.41,12.83 -19.24,16.82 -7.85,3.97 -16.74,6.68 -26.71,8.14 -9.99,1.44 -19.95,2.18 -29.92,2.18 -5.71,0 -11.22,-0.2 -16.56,-0.55 -5.36,-0.37 -10.87,-0.54 -16.57,-0.54 -4.98,0 -10.33,-0.19 -16.01,-0.55 -5.72,-0.37 -11.42,-0.54 -17.12,-0.54 l -19.23,0 0,-207.25 128.23,0 c 3.57,0 8.2,1.25 13.89,3.8 5.7,2.51 11.75,4.88 18.16,7.05 l -1.06,0 c 5.71,2.88 10.85,6.87 15.5,11.93 4.62,5.06 9.09,8.31 13.36,9.77 4.96,1.44 9.07,0.9 12.3,-1.63 3.19,-2.54 4.43,-5.61 3.73,-9.22 -1.44,-9.41 -2.68,-20.61 -3.73,-33.64 -1.08,-13.02 -2.33,-24.25 -3.74,-33.63 -1.45,-8.69 -2.87,-17.37 -4.29,-26.05 -1.43,-8.68 -2.86,-18.09 -4.27,-28.22 -0.71,-3.62 -3.21,-6.15 -7.49,-7.59 -4.26,-1.46 -8.19,-0.72 -11.76,2.17 -8.55,5.05 -12.65,8.5 -12.28,10.32 0.36,1.79 0.17,4.5 -0.53,8.13 -2.15,6.51 -4.45,12.65 -6.95,18.44 -2.49,5.79 -4.81,9.4 -6.95,10.86 -3.56,2.87 -10.67,5.24 -21.37,7.04 -10.68,1.81 -22.62,3.08 -35.79,3.81 -13.19,0.71 -26.19,1.09 -39.01,1.09 -12.83,0 -23.51,0 -32.07,0 l -13.88,0 0,-210.51 c 11.39,-15.93 27.41,-27.51 48.1,-34.72 20.64,-7.25 40.23,-10.85 58.76,-10.85 22.79,0 43.83,5.58 63.06,16.81 19.23,11.21 32.05,29.47 38.46,54.8 0.7,2.17 2.49,3.8 5.35,4.88 2.84,1.09 5.69,1.44 8.54,1.09 2.84,-0.38 5.52,-1.46 8.03,-3.26 2.47,-1.81 3.37,-3.8 2.66,-5.96 l -22.44,-99.83"
           inkscape:connector-curvature="0" />
        <path
           id="path3019"
           style="fill:#25477f;fill-opacity:1;fill-rule:nonzero;stroke:none"
           d="m 1497.85,1975.88 c -44.5,0 -88.36,-0.46 -131.56,-1.31 -43.22,-0.85 -86.64,0 -130.28,2.62 -5.14,0 -9.21,1.48 -12.2,4.55 -3,3.01 -3.65,6.73 -1.92,11.06 3.41,11.29 5.33,22.37 5.78,33.25 0.42,10.85 0.64,21.92 0.64,33.23 0,62.57 -3.01,128.37 -8.99,197.45 -5.99,69.09 -12.83,134.92 -20.53,197.46 -2.57,19.12 -4.72,36.05 -6.42,50.85 -1.73,14.74 -3.42,29.29 -5.14,43.64 -1.72,14.36 -3.42,28.88 -5.14,43.68 -1.72,14.77 -3.42,31.7 -5.12,50.81 -38.51,-75.58 -75.73,-151.63 -111.67,-228.06 -35.94,-76.5 -71.882,-153.39 -107.82,-230.71 -15.402,-33.03 -30.808,-66.26 -46.21,-99.71 -15.403,-33.44 -31.247,-67.11 -47.485,-101 -2.57,-4.36 -6.426,-6.5 -11.558,-6.5 -5.133,0 -9.848,1.7 -14.122,5.19 -53.066,73.01 -98.628,148.6 -136.699,226.79 -38.082,78.2 -75.082,157.7 -111.023,238.51 -9.426,19.97 -17.324,37.57 -23.746,52.77 -6.41,15.2 -12.629,29.75 -18.61,43.68 -6,13.89 -12.418,28.23 -19.257,43 -6.86,14.77 -15.403,31.73 -25.672,50.85 -1.727,-24.35 -4.067,-48.69 -7.059,-73 -3.008,-24.36 -6.215,-48.24 -9.629,-71.67 -8.562,-59.96 -16.258,-121.03 -23.094,-183.15 -6.863,-62.11 -10.273,-123.15 -10.273,-183.11 l 0,-37.78 c 0,-14.8 0.195,-26.07 0.645,-33.88 0.417,-7.85 1.703,-13.93 3.847,-18.27 2.121,-4.35 5.332,-7.81 9.621,-10.42 4.282,-2.62 10.692,-5.66 19.254,-9.12 l -1.281,0 c 6.84,-2.61 14.32,-5.66 22.465,-9.11 8.125,-3.51 17.754,-7.86 28.886,-13.04 6.836,-2.63 9.625,-6.76 8.34,-12.41 -1.285,-5.66 -6.222,-8.45 -14.761,-8.45 -43.649,0 -87.5,-0.42 -131.563,-1.31 -44.086,-0.85 -87.926,0 -131.566,2.62 -6.868,0.85 -10.918,3.68 -12.2,8.44 -1.289,4.77 0.208,8.91 4.5,12.4 0,-0.87 4.485,-0.44 13.469,1.32 8.985,1.72 15.606,3.03 19.903,3.88 9.406,1.74 17.746,3.7 25.027,5.87 7.258,2.16 13.48,8.9 18.609,20.21 2.571,6.07 6.2,22.79 10.91,50.18 4.692,27.38 9.625,61.91 14.766,103.61 5.133,41.72 10.688,88.4 16.68,140.1 5.98,51.7 11.754,104.5 17.336,158.38 5.554,53.85 11.105,107.07 16.675,159.65 5.559,52.56 10.477,101.01 14.762,145.32 4.281,39.1 7.903,73.2 10.91,102.32 2.993,29.1 5.34,50.18 7.067,63.21 0.84,5.22 3.84,8.68 8.98,10.43 5.141,1.73 10.266,0.43 15.403,-3.92 8.543,-7.81 19.675,-23.25 33.371,-46.26 13.683,-23.03 29.086,-50.63 46.211,-82.76 17.109,-32.15 35.5,-68.23 55.195,-108.17 19.672,-39.99 39.789,-81.26 60.324,-123.84 20.531,-42.58 41.07,-85.16 61.61,-127.71 20.535,-42.57 39.792,-83 57.761,-121.21 21.375,-45.19 38.067,-81.05 50.055,-107.53 11.973,-26.53 22.664,-48.43 32.098,-65.83 22.238,46.05 43.628,91.24 64.171,135.56 20.536,44.32 41.075,89.47 61.61,135.55 17.107,39.08 34.657,77.74 52.627,116 17.97,38.21 35.94,77.33 53.91,117.3 l 25.68,57.34 c 17.1,36.51 34.64,73.41 52.62,110.79 17.97,37.34 38.5,73.84 61.6,109.48 4.28,4.33 9.63,6.06 16.05,5.21 6.42,-0.88 10.05,-4.36 10.91,-10.43 6.84,-57.34 13.48,-114.92 19.89,-172.68 6.43,-57.81 12.62,-115.36 18.62,-172.69 0.84,-9.58 1.92,-22.4 3.21,-38.45 1.28,-16.11 2.76,-33.71 4.48,-52.79 1.72,-25.23 3.86,-52.79 6.42,-82.76 2.57,-30 5.56,-60.42 9,-91.24 3.4,-30.85 6.83,-61.27 10.26,-91.24 3.41,-30 7.26,-57.81 11.55,-83.42 4.27,-25.62 8.76,-48.02 13.48,-67.1 4.69,-19.12 9.63,-33.05 14.76,-41.74 10.27,-17.38 21.6,-28.45 34.02,-33.21 12.39,-4.81 25.45,-8.48 39.14,-11.1 7.7,-1.74 16.05,-3.71 25.03,-5.86 8.99,-2.17 18.16,-5.42 27.6,-9.77 l -5.14,-20.84"
           inkscape:connector-curvature="0" />
        <path
           id="path3021"
           style="fill:#25477f;fill-opacity:1;fill-rule:nonzero;stroke:none"
           d="m 2163.37,2516.1 c -14.98,41.28 -35.94,77.56 -62.9,108.84 -26.95,31.27 -59.48,56.04 -97.54,74.28 -38.09,18.25 -80.23,27.39 -126.43,27.39 -42.81,0 -82.38,-6.97 -118.74,-20.85 -36.37,-13.93 -67.6,-33.71 -93.69,-59.34 -26.12,-25.61 -46.43,-56.46 -60.97,-92.52 -14.56,-36.06 -21.82,-76.7 -21.82,-121.86 0,-46.07 7.7,-89.93 23.1,-131.63 15.41,-41.73 37.01,-78.45 64.82,-110.15 27.8,-31.73 60.97,-56.92 99.48,-75.58 38.51,-18.69 81.28,-28.02 128.36,-28.02 43.63,0 83.2,7.18 118.72,21.48 35.5,14.35 65.89,34.74 91.13,61.27 25.23,26.51 44.7,58.21 58.4,95.14 13.67,36.92 20.54,77.56 20.54,121.87 0,45.16 -7.5,88.41 -22.46,129.68 z m 98.83,-284.14 c -25.25,-43.89 -58.2,-80.59 -98.83,-110.11 -40.66,-29.57 -86.44,-51.72 -137.34,-66.46 -50.92,-14.82 -102.05,-22.17 -153.39,-22.17 -51.34,0 -101.61,9.76 -150.81,29.3 -49.22,19.58 -92.64,46.3 -130.29,80.18 -37.66,33.89 -68.02,74.07 -91.13,120.57 -23.1,46.46 -34.65,96.65 -34.65,150.54 0,59.05 12.62,111.62 37.87,157.7 25.22,46.05 58.17,84.91 98.83,116.64 40.63,31.7 86.84,55.8 138.62,72.35 51.76,16.48 104.61,24.74 158.52,24.74 53.05,0 103.75,-10.86 152.1,-32.58 48.33,-21.72 90.91,-50.83 127.71,-87.33 36.78,-36.46 66.1,-79.08 87.92,-127.7 21.83,-48.7 32.74,-99.94 32.74,-153.82 0,-57.36 -12.63,-107.96 -37.87,-151.85"
           inkscape:connector-curvature="0" />
        <path
           id="path3023"
           style="fill:#25477f;fill-opacity:1;fill-rule:nonzero;stroke:none"
           d="m 3069.58,2732.47 c -3.01,-0.46 -6.65,-1.11 -10.92,-1.96 -8.56,-1.75 -16.68,-4.13 -24.38,-7.18 -7.7,-3.05 -14.12,-7.15 -19.26,-12.37 -5.99,-7.82 -12.42,-17.82 -19.25,-29.98 -6.85,-12.19 -13.91,-25.22 -21.18,-39.12 -7.28,-13.88 -14.34,-28.44 -21.17,-43.64 -6.87,-15.22 -13.28,-29.33 -19.26,-42.36 -4.29,-9.58 -8.14,-18.69 -11.56,-27.38 -3.42,-8.7 -7.28,-16.51 -11.55,-23.44 -6.86,-14.8 -14.55,-30.88 -23.1,-48.23 -8.57,-17.39 -16.26,-33.89 -23.11,-49.55 -29.09,-62.54 -58.4,-124.45 -87.92,-185.72 -29.52,-61.24 -60.12,-122.72 -91.77,-184.42 -3.43,-3.47 -7.92,-5.44 -13.48,-5.87 -5.57,-0.45 -10.06,1.1 -13.47,4.56 -35.94,54.74 -69.12,115.37 -99.48,181.83 -30.39,66.48 -59.26,132.28 -86.64,197.47 -12.83,29.51 -25.47,59.29 -37.87,89.26 -12.4,29.96 -25.03,57.99 -37.86,84.07 l 1.29,0 c -3.43,5.22 -6.42,10.85 -8.99,16.96 -2.57,6.04 -5.57,12.58 -8.98,19.54 -6.87,13.04 -13.06,25.83 -18.62,38.45 -5.57,12.59 -11.35,23.23 -17.32,31.92 -5.14,10.45 -12.2,17.37 -21.19,20.87 -8.98,3.46 -18.6,6.5 -28.87,9.11 -6.86,1.74 -13.92,3.47 -21.18,5.22 -7.28,1.72 -14.34,4.75 -21.18,9.13 -6.86,2.59 -8.99,6.72 -6.42,12.38 2.57,5.64 7.7,8.48 15.4,8.48 14.54,-0.89 28.44,-1.12 41.73,-0.68 13.24,0.44 27.15,0.68 41.71,0.68 l 47.49,0 c 23.1,0 44.48,0.63 64.18,1.93 19.66,1.31 44.06,1.96 73.16,1.96 7.69,0 10.91,-3.89 9.62,-11.73 -1.28,-7.83 -5.77,-11.3 -13.47,-10.43 -6,0.86 -13.28,-1.74 -21.82,-7.82 -8.57,-6.08 -15.4,-10.42 -20.55,-13.03 17.97,-66.93 40.86,-133.16 68.68,-198.77 27.79,-65.59 56.26,-130.11 85.35,-193.54 5.14,-12.19 10.05,-23.04 14.77,-32.59 4.69,-9.57 8.98,-18.89 12.83,-28.01 3.86,-9.12 7.91,-18.48 12.2,-28.02 4.26,-9.58 8.98,-20.85 14.11,-33.89 l 29.52,59.96 c 17.97,36.51 37.43,76.9 58.41,121.2 20.96,44.32 40.63,87.99 59.04,131 18.39,43.01 33.79,82.75 46.21,119.26 12.39,36.49 18.61,65.16 18.61,86.01 0,1.73 -4.72,3.46 -14.12,5.22 -9.42,1.73 -17.54,3.02 -24.38,3.9 -1.72,0 -3.44,0.21 -5.14,0.67 -1.73,0.42 -3.01,0.63 -3.85,0.63 -8.56,0 -12.84,3.47 -12.84,10.42 0,7.83 4.28,11.74 12.84,11.74 17.97,0.85 36.13,1.52 54.55,1.95 18.39,0.43 37.01,0.67 55.84,0.67 18.81,0 37.21,-0.24 55.19,-0.67 17.97,-0.43 36.78,-1.1 56.47,-1.95 l 2.57,-22.16 c -3.43,-0.88 -6.64,-1.51 -9.62,-1.94"
           inkscape:connector-curvature="0" />
        <path
           id="path3025"
           style="fill:#25477f;fill-opacity:1;fill-rule:nonzero;stroke:none"
           d="m 3611.88,2056.66 -10.29,-5.2 c -5.13,-1.76 -14.98,-2.61 -29.51,-2.61 -14.55,0 -30.16,0.22 -46.85,0.67 -16.69,0.42 -32.53,0.85 -47.49,1.27 -14.98,0.46 -25.46,0.67 -31.45,0.67 -13.69,0 -27.38,-0.21 -41.06,-0.67 -13.71,-0.42 -27.42,-0.63 -41.09,-0.63 -30.79,0 -61.61,-0.22 -92.41,-0.64 -30.8,-0.45 -61.19,0.18 -91.13,1.94 -7.71,0.85 -11.35,4.98 -10.91,12.38 0.42,7.38 4.49,11.09 12.19,11.09 23.95,0.85 39.79,8.48 47.5,22.78 7.7,14.36 11.55,33.27 11.55,56.72 l 0,534.36 c 0,14.77 -4.07,24.55 -12.2,29.33 -8.14,4.78 -16.9,8.02 -26.31,9.79 -6.86,1.73 -13.92,3.45 -21.18,5.2 -7.28,1.72 -14.34,4.77 -21.18,9.12 -6.86,3.46 -8.98,7.84 -6.42,13.03 2.57,5.24 7.7,7.83 15.41,7.83 7.7,0 17.75,-0.23 30.16,-0.66 12.4,-0.45 26.32,-0.63 41.72,-0.63 24.81,-0.88 51.76,-1.54 80.86,-1.98 29.08,-0.44 58.61,-0.63 88.57,-0.63 42.77,0 81.7,0.84 116.8,2.61 35.08,1.71 58.6,4.75 70.59,9.11 5.99,1.73 11.13,1.32 15.41,-1.3 4.27,-2.61 5.97,-6.1 5.14,-10.42 -1.74,-16.53 -4.31,-31.74 -7.7,-45.63 -3.44,-13.91 -6.86,-27.81 -10.28,-41.69 -1.74,-6.11 -3.01,-11.73 -3.86,-16.97 -0.84,-5.19 -2.13,-10.42 -3.83,-15.61 -1.73,-6.12 -6.87,-9.15 -15.41,-9.15 -8.57,0 -13.28,3.46 -14.12,10.42 -0.86,14.77 -4.3,26.51 -10.28,35.2 -5.99,8.69 -13.68,15.42 -23.1,20.21 -9.42,4.77 -20.11,8.02 -32.08,9.79 -11.99,1.71 -23.97,2.6 -35.94,2.6 -6.87,0 -13.48,-0.24 -19.91,-0.67 -6.41,-0.45 -13.04,-0.64 -19.88,-0.64 -6,0 -12.43,-0.24 -19.26,-0.66 -6.85,-0.45 -13.69,-0.63 -20.54,-0.63 l -23.11,0 0,-248.95 154.03,0 c 4.28,0 9.83,1.49 16.69,4.56 6.83,3.03 14.13,5.86 21.81,8.47 l -1.27,0 c 6.84,3.47 13.04,8.24 18.6,14.32 5.56,6.08 10.92,10 16.05,11.74 5.99,1.73 10.91,1.09 14.78,-1.96 3.85,-3.03 5.32,-6.73 4.49,-11.09 -1.73,-11.27 -3.22,-24.74 -4.49,-40.39 -1.29,-15.65 -2.81,-29.11 -4.51,-40.39 -1.73,-10.42 -3.43,-20.85 -5.14,-31.3 -1.71,-10.43 -3.43,-21.7 -5.13,-33.9 -0.86,-4.33 -3.85,-7.38 -8.96,-9.11 -5.14,-1.73 -9.87,-0.88 -14.14,2.61 -10.28,6.08 -15.2,10.21 -14.75,12.37 0.4,2.16 0.2,5.45 -0.66,9.79 -2.55,7.81 -5.36,15.19 -8.32,22.16 -3.01,6.96 -5.78,11.28 -8.36,13.03 -4.29,3.47 -12.84,6.29 -25.67,8.48 -12.84,2.17 -27.17,3.68 -42.99,4.56 -15.85,0.86 -31.46,1.31 -46.87,1.31 -15.39,0 -28.23,0 -38.5,0 l -16.69,0 0,-252.86 c 13.68,-19.12 32.94,-33.04 57.78,-41.7 24.8,-8.69 48.32,-13.05 70.59,-13.05 27.37,0 52.62,6.73 75.73,20.22 23.1,13.46 38.49,35.38 46.22,65.8 0.83,2.61 2.97,4.59 6.41,5.87 3.4,1.3 6.84,1.72 10.27,1.3 3.4,-0.42 6.62,-1.73 9.62,-3.89 2.99,-2.19 4.06,-4.55 3.21,-7.17 l -26.95,-119.93"
           inkscape:connector-curvature="0" />
        <path
           id="path3027"
           style="fill:#df6b13;fill-opacity:1;fill-rule:nonzero;stroke:none"
           d="m 4276.47,2612.85 c -12.43,-33.11 -29.89,-62.89 -52.41,-89.3 -22.54,-26.41 -49.31,-47.72 -80.37,-63.85 -31.06,-16.17 -64.84,-24.26 -101.33,-24.26 -24.08,0 -46.59,3.13 -67.56,9.46 -3.89,0.78 -6.4,2.97 -7.57,6.49 -1.17,3.57 -1.37,7.51 -0.58,11.86 0.76,4.32 2.33,7.87 4.65,10.64 2.34,2.74 5.43,4.13 9.33,4.13 3.88,-0.79 7.76,-1.19 11.65,-1.19 3.87,0 7.75,0 11.66,0 57.43,0 102.28,16.15 134.51,48.51 32.21,32.3 48.34,77.27 48.34,134.82 0,26.02 -3.9,52.04 -11.64,78.05 -7.77,26.04 -19.05,49.28 -33.78,69.79 -14.76,20.5 -32.82,37.26 -54.16,50.27 -21.37,13 -45.64,19.51 -72.81,19.51 -13.2,0 -26.01,-1.59 -38.43,-4.72 -12.43,-3.16 -24.08,-6.71 -34.93,-10.65 l 0,-680.08 c 0,-3.16 0.75,-9.27 2.32,-18.33 1.55,-9.08 3.3,-18.75 5.24,-28.99 1.93,-10.24 4.08,-19.69 6.4,-28.35 2.33,-8.69 4.27,-13.83 5.84,-15.38 3.87,-3.99 9.69,-6.51 17.45,-7.7 7.75,-1.18 14.75,-2.18 20.98,-2.98 10.86,-0.79 20.17,-1.75 27.96,-2.94 7.75,-1.18 13.57,-6.11 17.46,-14.77 2.34,-3.96 2.13,-7.32 -0.58,-10.05 -2.74,-2.77 -6.82,-4.14 -12.23,-4.14 -46.6,0 -93.38,-0.42 -140.36,-1.18 -46.98,-0.79 -94.17,0 -141.52,2.36 -7.76,0.76 -11.84,4.14 -12.22,10.03 -0.41,5.93 3.28,9.67 11.07,11.25 16.3,3.13 29.11,6.68 38.43,10.64 9.31,3.94 16.3,9.48 20.97,16.56 4.65,7.11 7.37,16.57 8.15,28.39 0.75,11.81 1.17,27.59 1.17,47.31 l 0,659.97 c 0,11.82 -1.37,21.29 -4.07,28.38 -2.74,7.1 -6.24,12.41 -10.5,15.97 -4.28,3.55 -9.14,5.91 -14.55,7.09 -5.45,1.19 -10.9,2.17 -16.31,2.96 -9.31,1.57 -18.46,3.35 -27.36,5.32 -8.96,1.96 -15.36,7.28 -19.22,15.97 -2.34,3.94 -2.34,7.48 0,10.64 2.32,3.14 6.57,4.73 12.8,4.73 l 24.47,0 c 13.19,0 25.62,0 37.26,0 12.42,0 25.22,-0.4 38.43,-1.18 12.42,-0.79 24.47,-0.79 36.12,0 11.64,0.78 23.3,1.18 34.94,1.18 l 94.36,0 c 35.69,0 71.03,-1.97 105.98,-5.9 34.93,-3.97 65.99,-13.02 93.18,-27.22 27.17,-14.19 49.3,-35.29 66.38,-63.27 17.08,-28 25.65,-66.06 25.65,-114.13 0,-34.71 -6.24,-68.6 -18.66,-101.72"
           inkscape:connector-curvature="0" />
        <path
           id="path3029"
           style="fill:#df6b13;fill-opacity:1;fill-rule:nonzero;stroke:none"
           d="m 4802.36,2727.58 c -7.37,27.59 -18.45,52.23 -33.2,73.91 -14.75,21.68 -33.18,39.42 -55.31,53.23 -22.14,13.78 -47.95,20.7 -77.46,20.7 -22.53,0 -44.26,-3.55 -65.23,-10.65 l 0,-389.12 c 31.05,-4.74 63.27,-7.08 96.67,-7.08 13.2,0 28.35,0.75 45.43,2.34 17.08,1.58 31.05,6.72 41.95,15.38 10.86,8.69 19.98,19.12 27.36,31.36 7.36,12.22 13.39,25.41 18.06,39.6 4.64,14.19 7.94,28.78 9.89,43.77 1.92,14.98 2.91,29.57 2.91,43.76 0,27.6 -3.68,55.2 -11.07,82.8 z m 359.35,-696.63 c -19.43,-4.75 -39.23,-7.11 -59.41,-7.11 -32.61,0 -61.94,6.13 -87.93,18.36 -26.04,12.21 -50.1,28.37 -72.22,48.47 -22.14,20.12 -42.72,42.76 -61.75,68.02 -19.02,25.22 -37.47,50.84 -55.3,76.86 -17.89,25.23 -35.54,49.88 -53.02,73.95 -17.47,24.04 -35.53,44.35 -54.15,60.9 -13.98,12.59 -31.27,20.49 -51.84,23.65 -20.59,3.13 -39.02,4.74 -55.32,4.74 -6.22,0 -13.21,0 -20.96,0 -7,0 -13.6,-0.42 -19.82,-1.18 l 0,-220.02 c 0,-3.95 0.6,-10.63 1.75,-20.09 1.17,-9.44 2.92,-19.5 5.23,-30.15 2.35,-10.66 4.67,-20.33 7,-28.99 2.35,-8.68 4.67,-13.8 6.99,-15.37 3.88,-1.59 9.12,-2.78 15.73,-3.57 6.58,-0.79 11.83,-1.58 15.73,-2.34 8.53,-0.81 17.26,-1.97 26.19,-3.55 8.93,-1.59 16.91,-5.53 23.89,-11.82 4.66,-3.96 5.83,-7.9 3.51,-11.83 -2.35,-3.94 -6.63,-5.93 -12.84,-5.93 -47.36,0 -94.74,0 -142.09,0 -47.37,0 -94.75,1.19 -142.11,3.57 -7.76,0.76 -11.85,4.12 -12.23,10.05 -0.39,5.9 3.3,9.65 11.06,11.22 17.09,3.15 30.3,6.68 39.62,10.63 9.32,3.96 16.1,9.48 20.38,16.57 4.25,7.11 6.79,16.74 7.56,28.99 0.76,12.22 1.17,27.78 1.17,46.72 l 0,655.23 c 0,13.39 -1.56,24.04 -4.66,31.93 -3.11,7.88 -6.99,13.6 -11.64,17.15 -4.66,3.55 -9.73,5.92 -15.15,7.1 -5.44,1.18 -10.88,2.15 -16.31,2.95 -10.88,0.78 -20.2,2.37 -27.94,4.73 -7.78,2.37 -12.82,7.49 -15.16,15.38 -2.32,3.94 -2.32,7.29 0,10.05 2.34,2.76 6.22,4.14 11.66,4.14 l 97.84,0 c 13.19,-0.79 25.62,-1 37.27,-0.6 11.64,0.39 23.68,0.6 36.1,0.6 7,0 13.79,0.2 20.39,0.6 6.59,0.38 13.4,0.59 20.39,0.59 l 61.73,0 c 32.61,0 64.64,-2.19 96.1,-6.51 31.43,-4.34 60.56,-13.02 87.34,-26.02 26.8,-13.01 49.89,-31.55 69.31,-55.58 19.39,-24.08 33.79,-55.81 43.09,-95.23 1.56,-3.94 2.52,-9.06 2.91,-15.37 0.4,-6.31 0.6,-12.23 0.6,-17.72 0,-24.47 -3.91,-48.7 -11.66,-72.77 -7.76,-24.04 -17.86,-47.5 -30.28,-70.35 -12.43,-22.89 -26.61,-44.35 -42.5,-64.46 -15.93,-20.13 -32.44,-38.45 -49.51,-55.01 12.41,-13.41 25.43,-29.54 39.02,-48.48 13.56,-18.93 27.36,-37.84 41.35,-56.78 23.3,-31.54 47.56,-64.06 72.78,-97.55 25.23,-33.56 51.65,-63.5 79.22,-89.91 27.56,-26.44 55.7,-47.31 84.45,-62.7 28.7,-15.35 57.84,-20.7 87.35,-15.95 l 6.99,-20.13 c -17.87,-8.65 -36.5,-15.34 -55.9,-20.08"
           inkscape:connector-curvature="0" />
        <path
           id="path3031"
           style="fill:#df6b13;fill-opacity:1;fill-rule:nonzero;stroke:none"
           d="m 5846.56,2615.82 c -14.75,50.85 -36.69,96.38 -65.8,136.59 -29.12,40.22 -64.85,72.93 -107.16,98.17 -42.34,25.23 -91.05,37.85 -146.17,37.85 -52.04,0 -98.05,-9.67 -138.03,-28.98 -40.02,-19.32 -73.79,-45.73 -101.34,-79.24 -27.57,-33.52 -48.54,-72.56 -62.89,-117.1 -14.38,-44.56 -21.57,-92.06 -21.57,-142.51 0,-51.28 7.58,-102.51 22.74,-153.76 15.12,-51.27 37.45,-97.4 66.97,-138.37 29.5,-41 65.81,-74.34 108.91,-99.97 43.09,-25.61 92.18,-38.41 147.34,-38.41 52.01,0 97.83,10.03 137.42,30.15 39.61,20.13 72.81,47.11 99.61,81.03 26.79,33.88 47.16,73.51 61.14,118.87 13.99,45.31 20.97,92.85 20.97,142.5 0,51.25 -7.39,102.31 -22.14,153.18 z m 108.34,-317.57 c -20.96,-47.32 -49.51,-88.32 -85.62,-123 -36.11,-34.7 -78.24,-63.48 -126.36,-86.35 -48.16,-22.88 -99.42,-40.62 -153.77,-53.21 -4.67,-0.79 -10.29,-1.58 -16.87,-2.37 -6.62,-0.79 -13.61,-1.37 -20.97,-1.8 -7.39,-0.36 -14.97,-0.57 -22.74,-0.57 -6.98,0 -12.79,0 -17.46,0 -31.83,0 -64.84,5.92 -99,17.75 -34.18,11.83 -67.17,27.78 -99,47.9 -31.86,20.09 -61.94,43.95 -90.27,71.54 -28.36,27.6 -53.02,57.38 -73.97,89.29 -20.97,31.94 -37.66,65.25 -50.08,99.96 -12.43,34.68 -18.62,69.36 -18.62,104.07 0,69.39 7.36,130.87 22.11,184.51 14.74,53.62 38.43,100.11 71.05,139.57 32.62,39.41 74.55,72.32 125.79,98.75 51.25,26.41 113.37,47.49 186.37,63.28 10.86,2.36 22.3,4.13 34.35,5.32 12.04,1.19 23.48,1.77 34.36,1.77 73,0 136.67,-14.98 191.03,-44.94 54.35,-29.98 99.39,-68.6 135.11,-115.92 35.71,-47.29 62.33,-100.32 79.79,-159.07 17.48,-58.75 26.22,-116.89 26.22,-174.46 0,-60.72 -10.49,-114.73 -31.45,-162.02"
           inkscape:connector-curvature="0" />
        <path
           id="path3033"
           style="fill:#df6b13;fill-opacity:1;fill-rule:nonzero;stroke:none"
           d="m 5956.37,2092.16 c -1.73,-2.89 -3.95,-5.44 -6.61,-7.69 -2.68,-2.25 -5.69,-4.01 -8.99,-5.25 -3.31,-1.31 -6.55,-1.96 -9.7,-1.96 -7.25,0 -12.84,3.14 -16.77,9.37 -3.96,6.26 -5.92,12.39 -5.92,18.51 0,6.37 2.14,12.01 6.39,16.81 4.24,4.8 10.16,7.2 17.74,7.2 7.24,0 13.48,-2.99 18.67,-8.91 5.19,-5.93 7.79,-12.07 7.79,-18.48 0,-3.53 -0.86,-6.71 -2.6,-9.6"
           inkscape:connector-curvature="0" />
        <path
           id="path3035"
           style="fill:#df6b13;fill-opacity:1;fill-rule:nonzero;stroke:none"
           d="m 6255.71,2115.68 c -2.36,-8.33 -4.96,-15.68 -7.79,-22.09 -0.64,-1.28 -1.59,-2.21 -2.85,-2.86 -16.4,-5.14 -34.44,-9.7 -54.14,-13.71 -19.72,-3.97 -38.39,-5.99 -56.05,-5.99 -18.6,0 -36.4,3.13 -53.42,9.37 -17.03,6.23 -32.08,15.14 -45.17,26.66 -13.09,11.51 -23.57,25.28 -31.45,41.3 -7.88,15.98 -11.82,33.76 -11.82,53.27 0,20.82 4.8,41.15 14.43,61.01 9.62,19.84 21.98,36.65 37.13,50.42 6.3,5.74 14.17,10.54 23.64,14.4 9.45,3.83 19.39,6.86 29.78,9.11 10.41,2.26 20.73,3.84 30.97,4.81 10.25,0.97 19.32,1.42 27.2,1.42 9.77,0 19.31,-0.45 28.61,-1.42 9.3,-0.97 18.51,-2.1 27.67,-3.37 7.25,-0.95 14.18,-1.83 20.79,-2.65 6.63,-0.79 13.41,-1.52 20.34,-2.16 3.46,0 5.22,-1.28 5.22,-3.83 -0.32,-11.22 -1.29,-22.24 -2.85,-33.12 -1.57,-10.89 -3.31,-21.61 -5.2,-32.19 -0.63,-2.25 -2.54,-3.34 -5.68,-3.34 -2.84,0 -4.57,1.09 -5.2,3.34 -1.89,10.88 -5.68,20.18 -11.34,27.87 -5.67,7.66 -12.38,13.98 -20.11,18.97 -7.73,4.95 -16.31,8.53 -25.77,10.78 -9.46,2.25 -19.08,3.38 -28.84,3.38 -16.09,0 -31.22,-2.25 -45.4,-6.72 -14.19,-4.5 -26.65,-11.21 -37.37,-20.19 -10.71,-8.95 -19.21,-20.09 -25.52,-33.37 -6.31,-13.27 -9.46,-28.75 -9.46,-46.33 0,-18.25 3.47,-35.14 10.4,-50.68 6.93,-15.53 16.31,-28.95 28.14,-40.33 11.82,-11.37 25.53,-20.32 41.14,-26.87 15.61,-6.56 32.08,-9.84 49.42,-9.84 17.66,0 33.8,4.13 48.47,12.46 14.65,8.32 26.4,20.82 35.23,37.47 l 10.88,-1.91 c -0.32,-7.05 -1.66,-14.74 -4.03,-23.07"
           inkscape:connector-curvature="0" />
        <path
           id="path3037"
           style="fill:#df6b13;fill-opacity:1;fill-rule:nonzero;stroke:none"
           d="m 6540.4,2247.01 c -5.52,15.22 -13.24,28.57 -23.17,40.12 -9.94,11.51 -21.92,20.63 -35.95,27.35 -14.02,6.72 -29.56,10.09 -46.57,10.09 -15.78,0 -30.34,-2.56 -43.76,-7.69 -13.39,-5.1 -24.9,-12.4 -34.5,-21.85 -9.63,-9.43 -17.12,-20.79 -22.47,-34.07 -5.36,-13.32 -8.03,-28.27 -8.03,-44.92 0,-16.96 2.82,-33.13 8.51,-48.48 5.67,-15.37 13.63,-28.9 23.87,-40.57 10.24,-11.71 22.45,-20.97 36.65,-27.87 14.19,-6.88 29.96,-10.33 47.3,-10.33 16.07,0 30.64,2.64 43.73,7.93 13.08,5.28 24.28,12.8 33.58,22.59 9.29,9.74 16.47,21.42 21.52,35.03 5.03,13.62 7.57,28.57 7.57,44.89 0,16.66 -2.77,32.58 -8.28,47.78 z m 36.41,-104.68 c -9.31,-16.17 -21.44,-29.69 -36.41,-40.57 -14.98,-10.88 -31.86,-19.05 -50.61,-24.5 -18.75,-5.43 -37.6,-8.14 -56.5,-8.14 -18.92,0 -37.44,3.58 -55.58,10.79 -18.12,7.2 -34.12,17.05 -47.98,29.55 -13.88,12.49 -25.07,27.29 -33.58,44.4 -8.51,17.13 -12.76,35.62 -12.76,55.46 0,21.76 4.64,41.12 13.94,58.11 9.3,16.96 21.45,31.28 36.42,42.98 14.95,11.67 31.98,20.57 51.06,26.65 19.08,6.08 38.54,9.12 58.41,9.12 19.54,0 38.22,-4.01 56.05,-12 17.78,-8 33.48,-18.72 47.03,-32.19 13.56,-13.44 24.36,-29.12 32.4,-47.05 8.05,-17.93 12.05,-36.81 12.05,-56.65 0,-21.12 -4.65,-39.79 -13.94,-55.96"
           inkscape:connector-curvature="0" />
        <path
           id="path3039"
           style="fill:#df6b13;fill-opacity:1;fill-rule:nonzero;stroke:none"
           d="m 6987.03,2074.41 c -27.12,0 -54.07,0.95 -80.86,2.85 -1.88,0 -3.31,0.58 -4.26,1.7 -0.93,1.11 -1.11,2.47 -0.46,4.09 0.62,2.21 1.01,4.85 1.18,7.93 0.15,3.03 0.23,6.14 0.23,9.35 0,17.27 -0.95,34.72 -2.83,52.34 -1.9,17.59 -3.95,35.19 -6.15,52.83 -0.64,5.44 -1.27,9.99 -1.89,13.67 -0.63,3.68 -1.18,7.2 -1.66,10.57 -0.47,3.35 -0.95,6.78 -1.42,10.31 -0.47,3.52 -0.87,8 -1.18,13.46 -11.99,-19.87 -23.26,-39.94 -33.8,-60.27 -10.59,-20.32 -21.22,-40.75 -31.94,-61.23 -4.71,-9.27 -9.45,-18.39 -14.19,-27.35 -4.72,-8.98 -9.61,-17.94 -14.65,-26.9 -0.93,-1.62 -2.29,-2.5 -4.03,-2.65 -1.72,-0.15 -3.39,0.4 -4.95,1.7 -7.88,9.26 -15.37,19.27 -22.47,30 -7.08,10.73 -13.95,21.67 -20.56,32.89 -6.63,11.21 -12.85,22.49 -18.68,33.85 -5.85,11.37 -11.44,22.34 -16.79,32.88 -2.53,5.14 -4.64,9.46 -6.38,12.98 -1.75,3.53 -3.39,6.88 -4.96,10.09 -1.6,3.19 -3.25,6.53 -4.98,10.06 -1.73,3.52 -4.01,7.69 -6.85,12.5 -0.64,-6.42 -1.42,-12.5 -2.37,-18.24 -0.95,-5.77 -1.89,-11.7 -2.84,-17.78 -2.53,-16.63 -4.81,-33.28 -6.84,-49.94 -2.07,-16.65 -3.1,-33.12 -3.1,-49.45 l 0,-7.69 c 0,-4.49 0.09,-7.98 0.25,-10.56 0.16,-2.57 0.47,-4.48 0.94,-5.76 0.47,-1.26 1.26,-2.15 2.38,-2.63 1.09,-0.5 2.6,-1.04 4.48,-1.68 1.57,-0.67 3.39,-1.22 5.43,-1.7 2.06,-0.46 5.75,-2.01 11.11,-4.56 2.53,-0.95 3.47,-2.55 2.85,-4.81 -0.64,-2.25 -2.35,-3.34 -5.2,-3.34 -13.55,0 -27.03,0.15 -40.43,0.49 -13.41,0.31 -26.88,0.78 -40.42,1.43 -2.85,0.3 -4.36,1.67 -4.51,4.07 -0.16,2.39 1.19,3.93 4.01,4.56 2.53,0.65 5.05,0.98 7.57,0.98 2.84,0.29 5.52,0.72 8.05,1.18 2.52,0.48 4.41,2.01 5.67,4.56 0.95,1.94 2.21,7.54 3.8,16.81 1.56,9.29 3.3,20.66 5.19,34.1 1.88,13.46 3.86,28.42 5.9,44.88 2.06,16.5 4.03,32.91 5.92,49.24 1.89,16.32 3.62,31.85 5.2,46.56 1.58,14.74 3,27.24 4.25,37.47 0.64,4.16 1.11,7.9 1.43,11.28 0.3,3.38 0.63,6.02 0.95,7.93 0.29,1.92 1.49,3.19 3.53,3.83 2.06,0.64 4.04,0.34 5.92,-0.94 3.78,-3.22 9.38,-10.73 16.79,-22.59 7.39,-11.84 15.68,-25.86 24.82,-41.99 9.14,-16.17 18.61,-33.41 28.37,-51.64 9.78,-18.23 18.93,-35.05 27.44,-50.42 6.6,-12.16 11.5,-21.46 14.65,-27.84 3.16,-6.42 6.14,-12.01 9,-16.81 7.24,13.43 14.24,26.72 21.02,39.85 6.78,13.13 13.65,26.41 20.58,39.87 4.72,9.27 9.53,18.48 14.42,27.6 4.89,9.12 9.7,18.32 14.42,27.6 1.59,2.88 3.32,6.07 5.22,9.6 1.87,3.52 3.61,6.74 5.19,9.6 4.73,9.3 9.77,18.67 15.14,28.12 5.34,9.41 11.18,18.78 17.49,28.08 1.58,1.61 3.56,2.15 5.92,1.67 2.36,-0.48 3.69,-1.67 4.01,-3.59 4.73,-31.4 8.99,-62.61 12.77,-93.64 0.31,-2.58 0.55,-5.44 0.71,-8.65 0.16,-3.2 0.56,-7.03 1.17,-11.53 0.96,-9.9 1.98,-21.36 3.1,-34.3 1.09,-12.99 2.5,-25.72 4.25,-38.18 1.71,-12.5 3.62,-23.86 5.66,-34.11 2.06,-10.23 4.5,-17.29 7.33,-21.11 2.85,-4.49 6.23,-7.39 10.18,-8.67 3.94,-1.27 7.79,-2.25 11.58,-2.88 2.52,-0.65 4.65,-0.88 6.38,-0.71 1.74,0.16 4.98,-0.88 9.7,-3.13 l -1.9,-8.14"
           inkscape:connector-curvature="0" />
        <path
           id="path3041"
           style="fill:#25477f;fill-opacity:1;fill-rule:nonzero;stroke:none"
           d="m 4076.45,1480.16 c -27.24,-25.24 -54.45,-42.07 -85.24,-42.07 -79.32,0 -126.68,38.47 -103.59,145.43 l 34.34,155.05 c 23.08,106.98 87.01,145.43 166.32,145.43 83.48,0 117.8,-48.67 99.45,-147.23 l -81.68,0 c 12.43,55.88 -4.16,73.92 -33.74,73.92 -32.56,0 -56.24,-13.22 -66.29,-61.3 l -39.08,-176.68 c -10.06,-48.08 7.7,-61.31 40.26,-61.31 30.77,0 54.44,22.85 62.74,60.1 l 5.91,26.44 -57.4,0 14.79,68.51 139.11,0 -48.53,-222.35 -42.63,0 -4.74,36.06"
           inkscape:connector-curvature="0" />
        <path
           id="path3043"
           style="fill:#25477f;fill-opacity:1;fill-rule:nonzero;stroke:none"
           d="m 4394.31,1650.83 4.14,18.04 c 6.5,28.83 -3.55,46.86 -33.73,46.86 -30.2,0 -47.37,-18.03 -53.87,-46.86 l -4.14,-18.04 87.6,0 z m -100.63,-61.3 -9.47,-43.27 c -7.1,-32.45 8.28,-46.88 33.14,-46.88 31.39,0 48.54,20.44 53.87,45.69 l 74.59,0 c -18.35,-67.31 -66.31,-106.98 -141.48,-106.98 -71.03,0 -108.91,44.48 -92.93,115.98 l 23.08,106.97 c 15.4,71.52 72.81,115.99 143.85,115.99 69.25,0 108.33,-44.47 94.11,-111.17 l -16.57,-76.33 -162.19,0"
           inkscape:connector-curvature="0" />
        <path
           id="path3045"
           style="fill:#25477f;fill-opacity:1;fill-rule:nonzero;stroke:none"
           d="m 4512.68,1695.3 13.03,61.3 29.59,0 19.54,88.95 74.6,0 -19.55,-88.95 47.95,0 -13.03,-61.3 -47.94,0 -36.7,-167.06 c -3.55,-16.23 8.29,-24.04 28.41,-24.04 5.33,0 10.07,0 14.82,0.59 l -13.62,-63.71 c -14.81,-2.38 -29.01,-2.99 -43.23,-2.99 -48.52,0 -76.95,18.03 -66.29,64.92 l 42.03,192.29 -29.61,0"
           inkscape:connector-curvature="0" />
        <path
           id="path3047"
           style="fill:#25477f;fill-opacity:1;fill-rule:nonzero;stroke:none"
           d="m 4825.81,1444.1 94.7,433.9 114.25,0 11.83,-284.85 1.18,0 136.15,284.85 114.24,0 -94.7,-433.9 -69.86,0 74.59,341.35 -1.17,0 -161.61,-341.35 -61.56,0 -12.43,341.35 -1.19,0 -74.59,-341.35 -69.83,0"
           inkscape:connector-curvature="0" />
        <path
           id="path3049"
           style="fill:#25477f;fill-opacity:1;fill-rule:nonzero;stroke:none"
           d="m 5370.96,1542.66 c -5.33,-25.24 9.46,-38.46 35.5,-38.46 26.05,0 46.78,13.22 52.1,38.46 l 28.41,129.82 c 5.92,25.22 -9.46,38.45 -35.51,38.45 -26.05,0 -46.18,-13.23 -52.09,-38.45 l -28.41,-129.82 z m -50.33,110.57 c 18.96,86.53 71.04,123.8 145.63,123.8 74.59,0 110.11,-37.27 91.15,-123.8 l -20.12,-91.35 c -18.35,-86.53 -70.44,-123.79 -145.03,-123.79 -74.58,0 -110.1,37.26 -91.74,123.79 l 20.11,91.35"
           inkscape:connector-curvature="0" />
        <path
           id="path3051"
           style="fill:#25477f;fill-opacity:1;fill-rule:nonzero;stroke:none"
           d="m 5698.29,1560.68 1.19,0 95.3,210.35 74.58,0 -159.22,-326.93 -73.42,0 -15.97,326.93 74.59,0 2.95,-210.35"
           inkscape:connector-curvature="0" />
        <path
           id="path3053"
           style="fill:#25477f;fill-opacity:1;fill-rule:nonzero;stroke:none"
           d="m 5933.86,1827.52 15.4,68.5 74.59,0 -15.4,-68.5 -74.59,0 z m 62.76,-56.49 -71.63,-326.93 -74.6,0 71.64,326.93 74.59,0"
           inkscape:connector-curvature="0" />
        <path
           id="path3055"
           style="fill:#25477f;fill-opacity:1;fill-rule:nonzero;stroke:none"
           d="m 6006.06,1444.1 71.65,326.93 72.2,0 -8.29,-37.26 c 32.56,24.02 62.17,43.26 92.94,43.26 45.58,0 63.93,-23.43 50.91,-84.14 l -54.46,-248.79 -74.59,0 52.69,240.39 c 4.73,21.62 0.59,36.06 -19.54,36.06 -15.39,0 -36.09,-15.03 -55.06,-29.45 l -53.86,-247 -74.59,0"
           inkscape:connector-curvature="0" />
        <path
           id="path3057"
           style="fill:#25477f;fill-opacity:1;fill-rule:nonzero;stroke:none"
           d="m 6460.09,1715.73 c -28.42,0 -43.22,-19.83 -54.46,-70.9 -8.89,-40.88 -0.6,-61.31 21.89,-61.31 31.96,0 45.59,12.04 58.02,69.12 8.87,42.07 0.59,63.09 -25.45,63.09 z m -96.51,-286.05 c -9.47,-7.82 -18.93,-14.43 -21.29,-26.44 -3.56,-16.83 18.94,-24.04 62.74,-24.04 35.51,0 58,9.01 62.16,25.83 2.36,10.83 -1.79,15.64 -23.68,17.43 l -79.93,7.22 z m 244.48,281.25 c -5.34,1.21 -15.98,4.8 -21.89,4.8 -7.7,0 -15.99,-4.2 -26.64,-7.2 0,-21.64 1.18,-37.87 -3.55,-57.7 -17.76,-81.73 -62.16,-128.6 -135.56,-128.6 -10.64,0 -19.54,0.6 -30.2,4.2 -5.31,-6.01 -15.39,-11.41 -17.14,-19.23 -8.9,-40.87 191.76,22.24 166.31,-96.15 -12.43,-55.9 -75.17,-82.33 -161.6,-82.33 -79.3,0 -117.78,22.84 -110.08,59.49 5.33,24.65 36.09,39.66 56.22,51.09 -15.39,10.81 -24.86,25.24 -20.72,46.27 5.92,25.83 36.11,43.26 56.84,54.69 -30.78,24.03 -35.53,58.89 -23.68,113.58 15.38,70.32 53.85,123.19 137.33,123.19 30.77,0 61.56,-14.42 75.76,-37.85 24.28,24.03 45.58,37.85 73.41,37.85 l -14.81,-66.1"
           inkscape:connector-curvature="0" />
        <path
           id="path3059"
           style="fill:#25477f;fill-opacity:1;fill-rule:nonzero;stroke:none"
           d="m 6704.55,1590.72 -53.28,0 46.17,287.28 86.44,0 -79.33,-287.28 z m -100.63,-146.62 18.34,85.34 84.06,0 -18.35,-85.34 -84.05,0"
           inkscape:connector-curvature="0" />
      </g>
    </g>
  </g>
</svg>
